steps,Values,N_values
0,343748,0.10571879036731613
1,341225,0.10494284837464493
2,339807,0.10450674621625898
3,338740,0.10417859318170482
4,337417,0.10377170802264656
5,336114,0.10337097381081517
6,332643,0.10230347691958976
7,332474,0.1022515014155226
8,294538,0.09058438471557233
9,301374,0.0926867784777207
10,307164,0.0944674776999031
11,278376,0.08561380426152879
12,287536,0.08843093809144086
13,280777,0.086352225476116
14,291152,0.08954302935006117
15,282898,0.08700453342952685
16,274818,0.08451955074986643
17,335182,0.10308433967004246
18,331551,0.10196763520100198
19,330407,0.10161580101962432
20,320050,0.09843053299818334
21,336699,0.10355088901720148
22,337470,0.1037880080327978
23,338640,0.1041478384455704
24,339698,0.10447322355387248
25,1684,0.0005179097565034861
26,2134,0.000656306069108337
27,3056,0.0009398647362676092
28,22434,0.00689951750439383
29,23784,0.007314706442208382
30,24254,0.007459253702040115
31,24615,0.00757027829948534
32,24596,0.0075644348996198015
33,24363,0.007492776364426623
34,24527,0.0075432141316870574
35,28226,0.008680831821298932
36,24042,0.007394053661435163
37,48026,0.014770269575912367
38,40983,0.012604213509965781
39,42554,0.013087370414637381
40,38469,0.01183103944354668
41,39320,0.012092762248050521
42,47150,0.014500858087374925
43,20112,0.006185392531352799
44,21862,0.006723600413704997
45,18529,0.0056985450583450685
46,18365,0.005648107291084634
47,18282,0.005622580860093073
48,18189,0.00559397895548807
49,18011,0.005539235525168818
50,0,0.0
51,292598,0.08998774283456476
52,291682,0.08970602945157355
53,269806,0.08297812337480974
54,294169,0.09047089973923636
55,286346,0.08806495673144137
56,284126,0.08738220158925743
57,283798,0.08728132605473655
58,281834,0.08667730303705673
59,280042,0.08612617816552808
60,275350,0.0846831659461015
61,272602,0.08383802579712787
62,270850,0.08329920282005299
63,268735,0.08264874015081018
64,255804,0.07867184522126947
65,42076,0.012940362775914895
66,44819,0.013783965188081797
67,44269,0.013614814139342535
68,42105,0.012949281649393875
69,41671,0.01281580609457053
70,40667,0.012507028543781041
71,42813,0.013167025181225507
72,43432,0.013357396997897513
73,45960,0.01413487672737543
74,48305,0.014856075289727376
75,49348,0.015176847187609284
76,48873,0.01503076219097083
77,48126,0.014801024312046778
78,48961,0.015057826358769113
79,49204,0.015132560367575732
80,47876,0.01472413747171075
81,53036,0.016311081856246374
82,53087,0.01632676677167492
83,265160,0.08154925833400499
84,264970,0.0814908243353496
85,265491,0.08165105651060989
86,267778,0.08235441732600388
87,262220,0.0806450690916533
88,265268,0.08158247344903015
89,269907,0.08300918565830549
90,270334,0.08314050838159942
91,271962,0.08364119548586764
92,274761,0.08450202055026981
93,274920,0.08455092058072353
94,269551,0.08289969879766698
95,282801,0.08697470133547648
96,284889,0.08761686022596299
97,285770,0.08788780945130716
98,290674,0.08939602171133869
99,290482,0.08933697261796061
100,290517,0.08934773677560766
101,290814,0.08943907834192685
102,289304,0.08897468182629725
103,293180,0.09016673539886703
104,300644,0.09246226890393949
105,301358,0.09268185771993918
106,303237,0.09325973921190477
107,302935,0.09316685990877885
108,304033,0.09350454691153469
109,305259,0.09388159997654257
110,301022,0.09257852180652756
111,302806,0.09312718629916546
112,303313,0.09328311281136692
113,300647,0.09246319154602352
114,304916,0.09377611123160154
115,307318,0.09451483999355009
116,305642,0.09399939061593736
117,304306,0.09358850734118163
118,313025,0.09627001278474095
119,314848,0.09683067162447127
120,315535,0.09704195666171467
121,317624,0.09768442309956253
122,315422,0.09700720380988279
123,317512,0.09764997779509199
124,316120,0.09722187186810098
125,293604,0.09029713548007694
126,293126,0.09015012784135444
127,292644,0.09000189001318658
128,292405,0.08992838619382534
129,296192,0.0910930680512355
130,293705,0.09032819776357269
131,300575,0.09244104813600675
132,299091,0.09198464785177209
133,299219,0.09202401391402412
134,298323,0.0917484514782598
135,298127,0.09168817219543636
136,299747,0.09218639892081382
137,289781,0.0891213819176584
138,289076,0.08890456102791079
139,288677,0.08878184963073449
140,282671,0.08693472017850175
141,322197,0.09909083718298915
142,292075,0.08982689556458179
143,206,6.335475643688727e-05
144,0,0.0
145,0,0.0
146,319644,0.09830566876947763
147,0,0.0
148,0,0.0
149,0,0.0
150,279542,0.08597240448485602
151,286197,0.08801913217460108
152,293077,0.09013505802064858
153,301952,0.09286454085257759
154,305143,0.09384592448262666
155,299264,0.09203785354528461
156,285420,0.08778016787483671
157,272296,0.08374391630455658
158,0,0.0
159,0,0.0
160,326474,0.10040621724745792
161,0,0.0
162,0,0.0
163,0,0.0
164,0,0.0
165,0,0.0
166,0,0.0
167,0,0.0
168,0,0.0
169,49861,0.015334618983978815
170,48537,0.014927426277559209
171,48416,0.014890213046836572
172,49113,0.015104573557693419
173,49251,0.015147015093558905
174,49218,0.015136866030634551
175,42996,0.01322330634835148
176,45311,0.0139352784898631
177,46450,0.014285574934434046
178,33197,0.010209649754540516
179,37396,0.011501041124824448
180,36921,0.011354956128185994
181,39723,0.012216703834672198
182,39950,0.012286517085697312
183,35630,0.010957912484690744
184,53378,0.01641626305382606
185,53931,0.016586336744649353
186,52956,0.016286478067338843
187,57440,0.017665520435605847
188,55882,0.017186361646631718
189,36200,0.011133214480656888
190,348330,0.10712797237699485
191,348330,0.10712797237699485
192,348330,0.10712797237699485
193,12236,0.003763149513406566
194,10272,0.003159126495726728
195,10230,0.0031462095065502753
196,10308,0.003170198200735116
197,6864,0.0021110050882659913
198,6570,0.002020586164030822
199,6777,0.002084248467829053
200,6690,0.0020574918473921155
201,6624,0.002037193721543404
202,6604,0.0020310427743165218
203,6072,0.0018674275780814536
204,6021,0.0018517426626529039
205,6482,0.00199352199623254
206,5984,0.0018403634102831718
207,5837,0.0017951539481655871
208,5832,0.0017936162113588667
209,5556,0.0017087331396278915
210,5704,0.0017542501491068202
211,5663,0.0017416407072917116
212,4874,0.0014989858391912063
213,5280,0.0016238500678969162
214,5432,0.0016705972668212214
215,5158,0.0015863292898129345
216,5284,0.0016250802573422928
217,4783,0.001470999029308892
218,4677,0.0014383990090064162
219,4647,0.0014291725881660927
220,5162,0.0015875594792583109
221,4420,0.001359359337140979
222,4360,0.0013409064954603323
223,4499,0.001383655578687164
224,4437,0.001364587642283829
225,4343,0.0013356781903174826
226,4455,0.001370123494788023
227,4331,0.0013319876219813531
228,3630,0.00111639692167913
229,3933,0.0012095837721663961
230,4098,0.0012603290867881749
231,3973,0.0012218856666201606
232,3698,0.0011373101422505296
233,3582,0.0011016346483346125
234,3757,0.0011554554365698323
235,3426,0.0010536572599649308
236,3282,0.0010093704399313785
237,3615,0.0011117837112589683
238,3512,0.0010801063330405246
239,3163,0.0009727723039314292
240,3077,0.0009463232308558355
241,3019,0.0009284854838978769
242,2680,0.0008242269284022227
243,2561,0.0007876287924022732
244,3128,0.0009620081462843852
245,3014,0.0009269477470911564
246,2422,0.0007448797091754415
247,2541,0.000781477845175391
248,2658,0.0008174608864526522
249,2520,0.0007750193505871646
250,2409,0.000740881593477968
251,2306,0.0007092042152595245
252,2647,0.000814077865477867
253,2537,0.0007802476557300145
254,2450,0.0007534910352930766
255,2113,0.0006498475745201106
256,2178,0.000669838153007478
257,2056,0.0006323173749234962
258,1707,0.0005249833458144008
259,1590,0.0004890003045371396
260,1878,0.0005775739446042441
261,1778,0.0005468192084698328
262,1628,0.0005006871042682159
263,1739,0.0005348248613774124
264,2071,0.0006369305853436578
265,2160,0.0006643023005032839
266,1760,0.0005412833559656387
267,1138,0.00034998889720960053
268,1134,0.0003487587077642241
269,1172,0.0003604455074953004
270,1165,0.00035829267596589157
271,1136,0.0003493738024869123
272,1343,0.00041303610628514364
273,1602,0.0004926908728732689
274,1792,0.0005511248715286504
275,1665,0.0005120663566379481
276,1373,0.00042226252712546705
277,1718,0.000528366366789186
278,1823,0.0005606588397303178
279,1759,0.0005409758086042946
280,1901,0.0005846475339151587
281,2001,0.00061540227004957
282,1734,0.0005332871245706918
283,1915,0.0005889531969739762
284,2280,0.0007012079838645775
285,2380,0.0007319627199989888
286,2080,0.0006396985115957549
287,1773,0.0005452814716631122
288,1944,0.0005978720704529556
289,2500,0.0007688684033602824
290,2658,0.0008174608864526522
291,2187,0.000672606079259575
292,2147,0.0006603041848058104
293,2758,0.0008482156225870634
294,2730,0.0008396042964694283
295,2670,0.0008211514547887815
296,3018,0.0009281779365365329
297,2765,0.0008503684541164723
298,2530,0.0007780948242006057
299,2907,0.0008940401794273363
300,2646,0.0008137703181165228
301,3037,0.000934021336402071
302,3426,0.0010536572599649308
303,3427,0.001053964807326275
304,4215,0.001296312128065436
305,4168,0.0012818574020822626
306,4604,0.001415948051628296
307,5409,0.0016635236775103068
308,5339,0.0016419953622162189
309,5317,0.0016352293202666485
310,5069,0.0015589575746533084
311,4797,0.0014753046923677098
312,4992,0.0015352764278298116
313,5008,0.0015401971856113176
314,5563,0.0017108859711573003
315,4908,0.0015094424494769062
316,5359,0.0016481463094431012
317,5661,0.0017410256125690233
318,5956,0.0018317520841655366
319,5670,0.0017437935388211203
320,5653,0.0017385652336782704
321,6958,0.0021399145402323377
322,8269,0.00254310913095447
323,9030,0.0027771526729373397
324,8742,0.002688579032870235
325,9140,0.0028109828826851924
326,8587,0.0026409091918618978
327,9088,0.0027949904198952985
328,7849,0.0024139392391899425
329,8459,0.002601543129609851
330,8541,0.0026267620132400687
331,10144,0.0031197604334746816
332,13032,0.0040079572130364794
333,13465,0.00414112522049848
334,12823,0.00394367981451556
335,13225,0.004067313853775893
336,13199,0.004059317622380947
337,13262,0.004078693106145626
338,13973,0.00429735928006129
339,13903,0.004275830964767202
340,14658,0.004508029222582008
341,15323,0.004712548217875843
342,15458,0.004754067111657298
343,15364,0.004725157659690951
344,15220,0.0046808708396573985
345,14761,0.004539706600800451
346,8086,0.002486827963828497
347,118253,0.03636839812102539
348,15219,0.004680563292296055
349,15749,0.004843563393808434
350,16883,0.005192322101572658
351,15683,0.004823265267959723
352,16717,0.005141269239589536
353,16923,0.005204623996026423
354,16898,0.00519693531199282
355,17143,0.005272284415522128
356,16859,0.0051849409649004
357,16570,0.005096059777471951
358,16986,0.005223999479791102
359,16530,0.005083757883018187
360,16769,0.00515726170237943
361,17572,0.005404222233538753
362,16958,0.005215388153673467
363,16908,0.005200010785606261
364,16805,0.005168333407387818
365,16169,0.004972733285572962
366,16263,0.005001642737539309
367,16153,0.004967812527791456
368,16536,0.005085603167186251
369,16306,0.005014867274077106
370,15952,0.00490599550816129
371,16533,0.005084680525102219
372,16296,0.005011791800463664
373,16017,0.004925986086648656
374,15521,0.004773442595421977
375,15547,0.004781438826816924
376,14292,0.004395466888330062
377,14667,0.004510797148834104
378,14245,0.004381012162346889
379,13999,0.004305355511456237
380,13062,0.004017183633876803
381,12325,0.003790521228566192
382,11977,0.0036834947468184407
383,11960,0.0036782664416755905
384,11723,0.003605377717037036
385,11914,0.0036641192630537615
386,12210,0.0037551532820116187
387,13082,0.004023334581103685
388,12893,0.003965208129809648
389,12259,0.0037702231027174804
390,9312,0.0028638810288363794
391,8671,0.0026667431702148033
392,8671,0.0026667431702148033
393,9308,0.0028626508393910033
394,8868,0.0027273300003995936
395,8343,0.002565867635693934
396,7267,0.0022349466748876686
397,7248,0.0022291032750221306
398,7640,0.002349661840669023
399,7677,0.002361041093038755
400,7443,0.0022890750104842326
401,7679,0.0023616561877614433
402,7659,0.002355505240534561
403,7385,0.002271237263526274
404,7772,0.002390258092366446
405,7772,0.002390258092366446
406,7752,0.0023841071451395635
407,7528,0.002315216536198482
408,7559,0.0023247505044001497
409,7349,0.0022601655585178858
410,7557,0.0023241354096774614
411,7580,0.002331208998988376
412,7536,0.002317676915089235
413,7297,0.002244173095727992
414,7704,0.002369344871795046
415,7704,0.002369344871795046
416,7732,0.002377956197912681
417,7519,0.002312448609946385
418,7696,0.002366884492904293
419,7683,0.00236288637720682
420,7923,0.0024366977439294066
421,8126,0.0024991298582822618
422,7881,0.002423780754752954
423,7879,0.002423165660030266
424,7879,0.002423165660030266
425,7904,0.0024308543440638686
426,7884,0.0024247033968369863
427,7871,0.0024207052811395127
428,7853,0.0024151694286353186
429,7831,0.0024084033866857485
430,8272,0.002544031773038502
431,8262,0.002540956299425061
432,8009,0.0024631468170050004
433,8002,0.0024609939854755916
434,8193,0.002519735531492317
435,8240,0.0025341902574754905
436,8429,0.0025923167087695278
437,8441,0.0025960072771056574
438,8450,0.0025987752033577545
439,8455,0.002600312940164475
440,8704,0.0026768922331391587
441,8686,0.002671356380634965
442,8022,0.002467144932702474
443,7978,0.002453612848803333
444,7995,0.002458841153946183
445,7794,0.002397024134316016
446,7769,0.002389335450282413
447,7975,0.0024526902067193005
448,8173,0.0025135845842654348
449,8183,0.002516660057878876
450,8441,0.0025960072771056574
451,8414,0.0025877034983493663
452,8146,0.002505280805509144
453,8169,0.0025123543948200587
454,7956,0.0024468468068537625
455,8162,0.00251020156329065
456,8372,0.0025747865091729134
457,8354,0.0025692506566687193
458,8559,0.0026322978657442628
459,8181,0.002516044963156188
460,8417,0.0025886261404333985
461,8392,0.0025809374563997957
462,8133,0.0025012826898116705
463,8153,0.002507433637038553
464,8155,0.002508048731761241
465,8155,0.002508048731761241
466,8375,0.0025757091512569456
467,8568,0.00263506579199636
468,8151,0.0025068185423158646
469,8352,0.002568635561946031
470,8381,0.0025775544354250104
471,8126,0.0024991298582822618
472,8145,0.0025049732581477998
473,8351,0.002568328014584687
474,8149,0.0025062034475931763
475,8155,0.002508048731761241
476,8134,0.0025015902371730145
477,8098,0.0024905185321646263
478,8117,0.0024963619320301647
479,8349,0.002567712919861999
480,8175,0.002514199678988123
481,8144,0.002504665710786456
482,8131,0.0025006675950889823
483,8335,0.0025634072568031813
484,8329,0.0025615619726351165
485,7688,0.0023644241140135403
486,7890,0.002426548681005051
487,8094,0.00248928834271925
488,8332,0.002562484614719149
489,8210,0.0025249638366351673
490,8183,0.002516660057878876
491,7739,0.00238010902944209
492,7909,0.002432392080870589
493,8118,0.0024966694793915087
494,7927,0.002437927933374783
495,7896,0.0024283939651731155
496,8070,0.0024819072060469913
497,7870,0.0024203977337781688
498,7672,0.0023595033562320345
499,8192,0.002519427984130973
500,8393,0.0025812450037611396
501,7679,0.0023616561877614433
502,7480,0.0023004542628539647
503,7900,0.002429624154618492
504,7713,0.002372112798047143
505,7684,0.0023631939245681638
506,7888,0.002425933586282363
507,7649,0.00235242976692112
508,7492,0.002304144831190094
509,7955,0.002446539259492418
510,8179,0.0025154298684334996
511,7693,0.002365961850820261
512,7274,0.0022370995064170773
513,7663,0.0023567354299799375
514,7491,0.00230383728382875
515,7509,0.002309373136332944
516,7687,0.002364116566652196
517,7071,0.0021746673920642226
518,7725,0.0023758033663832724
519,7574,0.0023293637148203115
520,7516,0.002311525967862353
521,7272,0.002236484411694389
522,7048,0.002167593802753308
523,7275,0.0022374070537784217
524,7482,0.002301069357576653
525,6834,0.0021017786674256676
526,7274,0.0022370995064170773
527,7080,0.0021774353183163196
528,7335,0.0022558598954590683
529,7533,0.0023167542730052025
530,6839,0.0021033164042323885
531,7282,0.0022395598853078304
532,6870,0.0021128503724340557
533,7079,0.0021771277709549753
534,6426,0.00197629934399727
535,6845,0.002105161688400453
536,7090,0.0021805107919297606
537,6669,0.0020510333528038893
538,7125,0.0021912749495768048
539,6913,0.0021260749089718526
540,6795,0.0020897843203332473
541,6438,0.001979989912333399
542,6649,0.002044882405577007
543,6458,0.0019861408595602814
544,6653,0.0020461125950223835
545,6009,0.0018480520943167746
546,6456,0.001985525764837593
547,6219,0.0019126370401990383
548,6672,0.0020519559948879215
549,6234,0.0019172502506192
550,6460,0.0019867559542829697
551,6002,0.0018458992627873659
552,6008,0.0018477445469554305
553,6015,0.0018498973784848393
554,6246,0.0019209408189553294
555,6029,0.0018542030415436568
556,5611,0.0017256482445018176
557,6038,0.0018569709677957538
558,5869,0.0018049954637285987
559,6066,0.001865582293913389
560,5413,0.0016647538669556834
561,5447,0.001675210477241383
562,5593,0.0017201123919976236
563,5180,0.001593095331762505
564,5608,0.0017247256024177852
565,5200,0.0015992462789893873
566,5356,0.0016472236673590688
567,5627,0.0017305690022833234
568,5427,0.001669059530014501
569,5399,0.0016604482038968657
570,5199,0.0015989387316280431
571,4738,0.0014571593980484071
572,4930,0.0015162084914264768
573,4977,0.00153066321740965
574,4540,0.0013962650205022727
575,4753,0.0014617726084685688
576,4762,0.0014645405347206658
577,4547,0.0013984178520316814
578,4793,0.0014740745029223332
579,4580,0.0014085669149560371
580,4526,0.0013919593574434552
581,4323,0.0013295272430906002
582,4364,0.0013421366849057088
583,4000,0.0012301894453764517
584,3786,0.0011643743100488116
585,4115,0.0012655573919310248
586,4136,0.001272015886519251
587,3995,0.0012286517085697312
588,4068,0.0012511026659478514
589,3622,0.001113936542788377
590,4154,0.0012775517390234451
591,3732,0.0011477667525362294
592,3587,0.001103172385141333
593,3867,0.0011892856463176847
594,3872,0.0011908233831244052
595,3748,0.0011526875103177352
596,3629,0.0011160893743177858
597,3691,0.0011351573107211208
598,3992,0.0012277290664856988
599,3776,0.0011612988364353705
600,3657,0.001124700700435421
601,3696,0.0011366950475278413
602,3332,0.0010247478079985844
603,3183,0.0009789232511583114
604,3455,0.0010625761334439102
605,3532,0.001086257280267407
606,3609,0.0011099384270909036
607,3682,0.0011323893844690238
608,3775,0.0011609912890740263
609,3156,0.0009706194724020204
610,3005,0.0009241798208390594
611,3094,0.0009515515359986855
612,2918,0.0008974232004021215
613,3015,0.0009272552944525005
614,2830,0.0008703590326038396
615,2899,0.0008915798005365834
616,2996,0.0009214118945869624
617,3304,0.0010161364818809492
618,3369,0.0010361270603683164
619,2973,0.0009143383052760477
620,3061,0.0009414024730743296
621,2722,0.0008371439175786754
622,2615,0.0008042363499148553
623,2465,0.0007581042457132384
624,2338,0.000719045730822536
625,2437,0.0007494929195956032
626,2557,0.0007863986029568968
627,2629,0.0008085420129736729
628,2814,0.0008654382748223338
629,2313,0.0007113570467889332
630,2555,0.0007857835082342085
631,2271,0.0006984400576124805
632,2329,0.000716277804570439
633,2444,0.000751645751125012
634,2289,0.0007039759101166745
635,2386,0.0007338080041670535
636,2095,0.0006443117220159166
637,2193,0.0006744513634276396
638,1799,0.0005532777030580592
639,1881,0.0005784965866882764
640,1993,0.0006129418911588171
641,1877,0.0005772663972428999
642,1739,0.0005348248613774124
643,1350,0.00041518893781455245
644,1589,0.0004886927571757955
645,1573,0.00048377199939428963
646,1641,0.0005046852199656893
647,1413,0.00043456442157923156
648,1579,0.0004856172835623543
649,1785,0.0005489720399992416
650,1787,0.0005495871347219298
651,1773,0.0005452814716631122
652,1564,0.0004810040731421926
653,1771,0.000544666376940424
654,1137,0.0003496813498482564
655,1792,0.0005511248715286504
656,1994,0.0006132494385201612
657,1818,0.0005591211029235973
658,1771,0.000544666376940424
659,1362,0.0004188795061506818
660,1761,0.0005415909033269829
661,1799,0.0005532777030580592
662,1541,0.000473930483831278
663,1783,0.0005483569452765534
664,1545,0.00047516067327665445
665,1996,0.0006138645332428494
666,2016,0.0006200154804697316
667,2024,0.0006224758593604846
668,1767,0.0005434361874950476
669,1775,0.0005458965663858005
670,1772,0.0005449739243017681
671,1781,0.0005477418505538651
672,1580,0.00048592483092369844
673,1767,0.0005434361874950476
674,1760,0.0005412833559656387
675,2055,0.000632009827562152
676,1796,0.0005523550609740269
677,1771,0.000544666376940424
678,1997,0.0006141720806041935
679,1744,0.000536362598184133
680,2006,0.0006169400068562906
681,1773,0.0005452814716631122
682,1790,0.0005505097768059621
683,1793,0.0005514324188899944
684,1762,0.000541898450688327
685,2457,0.0007556438668224855
686,2016,0.0006200154804697316
687,1988,0.0006114041543520965
688,1804,0.0005548154398647798
689,1780,0.000547434303192521
690,1792,0.0005511248715286504
691,1804,0.0005548154398647798
692,1781,0.0005477418505538651
693,1796,0.0005523550609740269
694,1797,0.0005526626083353709
695,0,0.0
696,0,0.0
697,0,0.0
698,0,0.0
699,2387,0.0007341155515283975
700,16847,0.00518125039656427
701,17591,0.00541006563340429
702,18051,0.005551537419622583
703,17822,0.005481109073874781
704,22083,0.006791568380562046
705,25336,0.007792019947014445
706,48157,0.014810558280248446
707,50494,0.015529296463709638
708,57801,0.01777654503305107
709,51915,0.01596632126417962
710,30740,0.00945400588771803
711,29603,0.009104324537869775
712,29739,0.009146150979012575
713,35841,0.011022804977934352
714,19849,0.006104507575319298
715,18119,0.0055724506401939825
716,17385,0.005346710876967403
717,14013,0.0043096611745150545
718,12034,0.003701024946415055
719,0,0.0
720,0,0.0
721,0,0.0
722,0,0.0
723,0,0.0
724,0,0.0
725,0,0.0
726,0,0.0
727,0,0.0
728,0,0.0
729,82764,0.02545384981428416
730,82764,0.02545384981428416
731,82764,0.02545384981428416
732,82764,0.02545384981428416
733,82764,0.02545384981428416
734,86165,0.02649981839021549
735,85668,0.026346967351627466
736,85275,0.02622610123861923
737,87165,0.026807365751559602
738,87017,0.026761848742080676
739,87095,0.026785837436265517
740,97368,0.029945271479353587
741,106630,0.032793775140122765
742,111084,0.03416359108754944
743,104252,0.03206242751484646
744,114685,0.035271069135749594
745,114045,0.03507423882448936
746,102642,0.031567276263082436
747,106169,0.03265199580654313
748,102290,0.03145901959188931
749,98135,0.030181160305504523
750,106434,0.032733495857299316
751,102605,0.03155589701071271
752,112571,0.03462091401386814
753,100175,0.030808556922646512
754,100711,0.03097340230832696
755,100154,0.030802098428058287
756,93076,0.028625278204464654
757,89176,0.027425843495222615
758,90860,0.0279437532517261
759,85358,0.02625162766961079
760,88796,0.027308975497911853
761,83191,0.0255851725375781
762,82764,0.02545384981428416
763,82764,0.02545384981428416
764,82764,0.02545384981428416
765,82764,0.02545384981428416
766,82764,0.02545384981428416
767,0,0.0
